Le Van-Tan 2015 5 8 10 25 11 26 21.39
Le Van-Tan 2015 1 8 10 25 11 26 21.39
Le Van-Tan 2015 2 8 10 25 11 26 21.39
Le Van-Tan 2015 3 8 10 25 11 26 21.39
Kirchner Antony 2015 1 8 10 25 11 26 21.3
Coulombel Clothilde 2015 1 8 10 25 11 26 21.3
Coulombel Clothilde 2015 1 8 10 25 11 26 21.3
Le Van-Tan 2015 4 8 10 25 11 26 21.39
Le Van-Tan 2015 5 8 10 25 11 26 21.39
Kirchner Antony 2015 1 8 10 25 11 26 21.3
Kirchner Antony 2015 1 8 10 25 11 26 21.3
Kirchner Antony 2015 1 8 10 25 11 26 21.3
Kirchner Antony 2015 1 8 10 25 11 26 21.3
Kirchner Antony 2015 1 8 10 25 11 26 21.3
Le Van-Tan 2015 6 8 10 25 11 26 21.39
Le Van-Tan 2015 2 8 10 25 11 26 21.39
Le Van-Tan 2015 4 8 10 25 11 26 21.39
Le Van-Tan 2015 3 8 10 25 11 26 21.39
Le Van-Tan 2015 1 8 10 25 11 26 21.39
Kazak Vadim 2015 1 8 10 25 11 26 21.3
Kazak Vadim 2015 1 8 10 25 11 26 21.3
Kazak Vadim 2015 1 8 10 25 11 26 21.3
Kazak Vadim 2015 1 8 10 25 11 26 21.3
Coulombel Clothilde 2015 1 8 10 25 11 26 21.3
Coulombel Clothilde 2015 1 8 10 25 11 26 21.3
Kirchner Antony 2015 1 8 10 25 11 26 21.39
Kirchner Antony 2015 1 8 10 25 11 26 21.3
Kirchner Antony 2015 1 8 10 25 11 26 21.3
Kirchner Antony 2015 1 8 10 25 11 26 21.3
Kazak Vadim 2015 1 8 10 25 11 26 21.3
Kazak Vadim 2015 1 8 10 25 11 26 21.3
Kazak Vadim 2015 1 8 10 25 11 26 21.3
Coulombel Clothilde 2015 1 8 10 25 11 26 21.3
Coulombel Clothilde 2015 1 8 10 25 11 26 21.3
Coulombel Clothilde 2015 1 8 10 25 11 26 21.3
Coulombel Clothilde 2015 1 8 10 25 11 26 21.3
Coulombel Clothilde 2015 1 8 10 25 11 26 21.3
Kazak Vadim 2015 1 8 10 25 11 26 21.3
Kazak Vadim 2015 1 8 10 25 11 26 21.3
Kazak Vadim 2015 1 8 10 25 11 26 21.3


